<svg width="212" height="464" viewBox="0 0 212 464" fill="none" xmlns="http://www.w3.org/2000/svg">
<path d="M19.4764 448.515C53.545 468.111 109.324 468.111 143.726 448.183C178.129 428.586 178.129 396.701 144.06 376.772C109.992 357.176 54.213 357.176 19.8104 377.104C-14.2581 396.701 -14.5921 428.919 19.4764 448.515Z" fill="#E1E8EF"/>
<path d="M210.527 290.416L169.445 416.297L-5.24028 418.955L-44.987 297.723L210.527 290.416Z" fill="#E1E8EF"/>
<path d="M4.44628 299.716L44.1929 422.608C46.531 425.93 54.8811 441.872 68.9094 450.176C79.2635 456.155 91.6217 459.808 104.648 461.801C75.2555 466.783 42.1889 463.462 19.1425 450.176C4.78029 441.872 -3.56985 425.598 -5.57389 422.276L-45.3206 299.384H4.44628V299.716Z" fill="#D3DDE5"/>
<path d="M-47.5942 283.013C-47.8183 241.923 10.0213 208.3 81.5941 207.914C153.167 207.528 211.37 240.525 211.594 281.615C211.818 322.705 153.979 356.328 82.4058 356.714C10.8329 357.1 -47.37 324.103 -47.5942 283.013Z" fill="white"/>
<path d="M-28.409 280.282C-28.6011 245.062 21.0397 216.242 82.467 215.911C143.894 215.579 193.847 243.862 194.039 279.082C194.231 314.302 144.59 343.122 83.1629 343.453C21.7356 343.785 -28.2168 315.502 -28.409 280.282Z" fill="#1A2239"/>
<path d="M167.775 254.212C174.455 245.576 180.133 235.612 178.797 224.319C178.129 219.337 176.125 214.687 172.117 211.034C162.096 202.066 148.068 207.712 139.718 216.348C132.37 223.655 127.36 232.955 119.344 239.598C129.364 207.712 139.384 176.159 149.738 144.273C153.746 131.984 157.42 119.03 151.074 106.741C147.4 100.098 140.052 95.7804 132.704 97.1089C113.332 100.098 116.338 132.648 98.9694 141.948C111.328 118.366 120.012 92.7911 124.354 66.2197C127.36 46.9555 128.028 26.3627 114 10.752C106.318 2.1163 94.6274 -2.20155 83.6052 1.11987C63.8989 7.09843 60.2248 31.6769 59.5568 51.6055C58.5548 76.5161 57.8868 101.427 56.8848 126.005C52.5427 107.737 46.1966 87.4768 33.1703 74.5233C26.4902 67.8804 15.1341 72.1983 14.466 81.4982C12.128 110.395 17.8061 139.623 31.1663 165.53C28.8283 161.544 25.4882 157.891 21.8142 154.902C11.794 146.93 -2.90224 154.237 -2.56822 166.859C-1.90022 195.091 9.78998 223.323 30.1643 243.584L20.1441 232.623C15.4681 227.641 7.11792 230.962 7.11792 237.605C7.45193 256.537 15.8021 275.469 30.1643 288.091C73.919 326.951 138.048 293.405 167.775 254.212Z" fill="url(#paint0_linear)"/>
<defs>
<linearGradient id="paint0_linear" x1="178.942" y1="152.965" x2="-2.76395" y2="152.965" gradientUnits="userSpaceOnUse">
<stop stop-color="#517DE8"/>
<stop offset="1" stop-color="#0B3CC5"/>
</linearGradient>
</defs>
</svg>
